0,img_02897.jpg
1,img_00778.jpg
1,img_04249.jpg
-1,img_02420.jpg
2,img_02447.jpg
3,img_05073.jpg
4,img_03350.jpg
5,img_00562.jpg
-1,img_03391.jpg
6,img_05077.jpg
1,img_06407.jpg
1,img_07569.jpg
7,img_04170.jpg
8,img_04866.jpg
4,img_01663.jpg
5,img_04861.jpg
9,img_04083.jpg
5,img_07024.jpg
5,img_01664.jpg
1,img_05703.jpg
5,img_04817.jpg
10,img_00403.jpg
9,img_05478.jpg
11,img_03351.jpg
5,img_04026.jpg
12,img_01205.jpg
5,img_02051.jpg
1,img_07077.jpg
3,img_03434.jpg
4,img_05597.jpg
0,img_00276.jpg
9,img_06724.jpg
2,img_02058.jpg
1,img_01886.jpg
7,img_03046.jpg
1,img_06593.jpg
6,img_07228.jpg
13,img_06535.jpg
5,img_03232.jpg
14,img_04941.jpg
0,img_07631.jpg
15,img_07885.jpg
9,img_07535.jpg
5,img_05443.jpg
16,img_03264.jpg
5,img_04381.jpg
3,img_05625.jpg
5,img_03202.jpg
5,img_05270.jpg
1,img_01733.jpg
17,img_04914.jpg
0,img_02165.jpg
0,img_02604.jpg
-1,img_03318.jpg
60,img_06323.jpg
5,img_03635.jpg
9,img_01840.jpg
16,img_07671.jpg
18,img_04765.jpg
10,img_00840.jpg
1,img_00369.jpg
-1,img_00146.jpg
7,img_07620.jpg
19,img_01127.jpg
13,img_03101.jpg
1,img_06668.jpg
1,img_07775.jpg
0,img_06576.jpg
9,img_02475.jpg
9,img_03968.jpg
5,img_07463.jpg
1,img_02647.jpg
5,img_04292.jpg
20,img_05491.jpg
5,img_01191.jpg
0,img_00536.jpg
7,img_07003.jpg
1,img_03543.jpg
5,img_05812.jpg
1,img_07886.jpg
0,img_06301.jpg
5,img_05145.jpg
21,img_02227.jpg
5,img_00326.jpg
4,img_00705.jpg
1,img_07447.jpg
1,img_05962.jpg
5,img_00485.jpg
0,img_05351.jpg
5,img_03666.jpg
22,img_02773.jpg
1,img_05141.jpg
1,img_06925.jpg
0,img_07730.jpg
5,img_06115.jpg
5,img_03320.jpg
5,img_04352.jpg
0,img_00321.jpg
23,img_00110.jpg
5,img_03179.jpg
-1,img_07195.jpg
5,img_05171.jpg
24,img_02840.jpg
25,img_06971.jpg
5,img_07174.jpg
0,img_05874.jpg
5,img_03479.jpg
5,img_02883.jpg
5,img_06876.jpg
13,img_01469.jpg
5,img_05736.jpg
26,img_00068.jpg
5,img_05892.jpg
5,img_00214.jpg
27,img_02358.jpg
1,img_05347.jpg
5,img_05281.jpg
5,img_02494.jpg
1,img_00734.jpg
1,img_07282.jpg
0,img_05382.jpg
0,img_06277.jpg
9,img_06776.jpg
-1,img_05886.jpg
5,img_01692.jpg
3,img_05066.jpg
5,img_03860.jpg
8,img_07170.jpg
5,img_00139.jpg
5,img_05297.jpg
5,img_04702.jpg
28,img_07218.jpg
1,img_03910.jpg
0,img_06919.jpg
0,img_05507.jpg
0,img_05088.jpg
5,img_03768.jpg
6,img_02338.jpg
0,img_07017.jpg
-1,img_05425.jpg
28,img_05713.jpg
26,img_01497.jpg
5,img_02107.jpg
29,img_01291.jpg
1,img_03382.jpg
0,img_01876.jpg
9,img_02258.jpg
5,img_07647.jpg
1,img_00720.jpg
5,img_05954.jpg
30,img_03146.jpg
5,img_04448.jpg
1,img_00903.jpg
1,img_04469.jpg
31,img_05104.jpg
6,img_02623.jpg
1,img_05106.jpg
32,img_05605.jpg
1,img_00703.jpg
1,img_01368.jpg
-1,img_06082.jpg
19,img_04182.jpg
1,img_07841.jpg
5,img_05778.jpg
1,img_07577.jpg
0,img_02713.jpg
20,img_04980.jpg
19,img_06695.jpg
33,img_04756.jpg
5,img_01351.jpg
5,img_05149.jpg
7,img_06303.jpg
-1,img_06307.jpg
1,img_00704.jpg
1,img_01300.jpg
5,img_07840.jpg
1,img_01385.jpg
9,img_07321.jpg
1,img_04433.jpg
5,img_01111.jpg
26,img_00586.jpg
23,img_03623.jpg
34,img_04220.jpg
5,img_03208.jpg
35,img_07232.jpg
0,img_01189.jpg
5,img_07917.jpg
5,img_00984.jpg
5,img_05890.jpg
36,img_00378.jpg
26,img_04168.jpg
23,img_01313.jpg
13,img_02846.jpg
25,img_02654.jpg
8,img_06163.jpg
3,img_05534.jpg
5,img_07412.jpg
1,img_06190.jpg
1,img_04317.jpg
5,img_02105.jpg
1,img_02858.jpg
19,img_07207.jpg
9,img_04927.jpg
1,img_04527.jpg
5,img_02495.jpg
5,img_05481.jpg
1,img_02267.jpg
25,img_02707.jpg
1,img_01807.jpg
1,img_03337.jpg
5,img_00397.jpg
37,img_06223.jpg
14,img_01667.jpg
7,img_00732.jpg
38,img_02806.jpg
25,img_02219.jpg
19,img_01734.jpg
1,img_07849.jpg
1,img_03646.jpg
5,img_07701.jpg
5,img_05121.jpg
1,img_05490.jpg
39,img_07038.jpg
9,img_02218.jpg
5,img_02140.jpg
0,img_04385.jpg
5,img_00041.jpg
3,img_05190.jpg
1,img_04343.jpg
1,img_07471.jpg
5,img_04113.jpg
5,img_07817.jpg
0,img_00542.jpg
1,img_01372.jpg
0,img_04280.jpg
1,img_03022.jpg
14,img_02564.jpg
1,img_00415.jpg
1,img_01152.jpg
5,img_03944.jpg
5,img_06133.jpg
0,img_07518.jpg
32,img_07046.jpg
5,img_01144.jpg
12,img_05408.jpg
19,img_07083.jpg
5,img_01456.jpg
39,img_03242.jpg
34,img_04755.jpg
1,img_04802.jpg
5,img_07423.jpg
38,img_06415.jpg
5,img_04928.jpg
5,img_06823.jpg
15,img_00970.jpg
0,img_00076.jpg
1,img_00831.jpg
26,img_02829.jpg
1,img_05000.jpg
3,img_02716.jpg
-1,img_03949.jpg
1,img_07266.jpg
5,img_00814.jpg
40,img_07369.jpg
18,img_04400.jpg
1,img_01722.jpg
7,img_04910.jpg
5,img_01787.jpg
24,img_01234.jpg
5,img_07381.jpg
5,img_04124.jpg
0,img_06500.jpg
41,img_06763.jpg
-1,img_04162.jpg
34,img_00291.jpg
5,img_02704.jpg
1,img_02944.jpg
1,img_06194.jpg
1,img_02686.jpg
42,img_01028.jpg
20,img_07380.jpg
0,img_01509.jpg
1,img_07406.jpg
19,img_05583.jpg
42,img_01744.jpg
5,img_07923.jpg
5,img_00306.jpg
3,img_07362.jpg
21,img_02468.jpg
5,img_07619.jpg
1,img_02118.jpg
5,img_01254.jpg
0,img_01197.jpg
1,img_06537.jpg
0,img_01776.jpg
43,img_07015.jpg
0,img_04591.jpg
1,img_00698.jpg
44,img_02018.jpg
5,img_05570.jpg
0,img_03569.jpg
45,img_03486.jpg
0,img_00439.jpg
-1,img_00419.jpg
1,img_07533.jpg
5,img_06976.jpg
0,img_01763.jpg
5,img_03233.jpg
5,img_05100.jpg
1,img_01482.jpg
5,img_03282.jpg
19,img_07489.jpg
46,img_06777.jpg
5,img_03636.jpg
19,img_07020.jpg
1,img_04891.jpg
5,img_00639.jpg
5,img_04711.jpg
1,img_05391.jpg
18,img_06057.jpg
1,img_06719.jpg
5,img_01768.jpg
5,img_00555.jpg
5,img_03115.jpg
1,img_03243.jpg
5,img_00267.jpg
39,img_04258.jpg
1,img_03559.jpg
33,img_03567.jpg
5,img_02150.jpg
1,img_06448.jpg
9,img_06835.jpg
15,img_07108.jpg
1,img_02224.jpg
0,img_06006.jpg
1,img_04760.jpg
19,img_02109.jpg
5,img_03700.jpg
9,img_05370.jpg
1,img_06625.jpg
5,img_04055.jpg
9,img_07344.jpg
15,img_05279.jpg
47,img_06492.jpg
5,img_06386.jpg
9,img_02599.jpg
19,img_01165.jpg
34,img_05985.jpg
0,img_03372.jpg
40,img_03094.jpg
5,img_05501.jpg
1,img_05022.jpg
1,img_00211.jpg
9,img_03198.jpg
14,img_04644.jpg
0,img_04158.jpg
1,img_00940.jpg
3,img_06266.jpg
12,img_07726.jpg
7,img_00265.jpg
44,img_03136.jpg
44,img_05417.jpg
1,img_02913.jpg
8,img_02019.jpg
1,img_01914.jpg
5,img_01390.jpg
5,img_02997.jpg
7,img_02757.jpg
1,img_03373.jpg
1,img_03353.jpg
1,img_02052.jpg
40,img_07724.jpg
48,img_02597.jpg
5,img_02164.jpg
20,img_03017.jpg
7,img_06786.jpg
21,img_00904.jpg
12,img_01641.jpg
5,img_01046.jpg
5,img_01580.jpg
5,img_02925.jpg
38,img_00421.jpg
1,img_03429.jpg
7,img_05464.jpg
1,img_01232.jpg
9,img_02333.jpg
6,img_01130.jpg
5,img_04721.jpg
5,img_01728.jpg
47,img_01329.jpg
5,img_06117.jpg
1,img_05765.jpg
1,img_04224.jpg
1,img_04556.jpg
1,img_05272.jpg
20,img_01357.jpg
1,img_00434.jpg
42,img_07869.jpg
1,img_03244.jpg
3,img_03240.jpg
5,img_04605.jpg
5,img_03100.jpg
10,img_05247.jpg
5,img_07810.jpg
5,img_07686.jpg
42,img_06844.jpg
29,img_06702.jpg
1,img_02787.jpg
40,img_05865.jpg
1,img_02801.jpg
5,img_03383.jpg
5,img_04683.jpg
-1,img_02621.jpg
1,img_03164.jpg
5,img_03560.jpg
9,img_00116.jpg
5,img_00233.jpg
1,img_04524.jpg
1,img_04594.jpg
5,img_02203.jpg
19,img_07136.jpg
24,img_02206.jpg
1,img_02413.jpg
1,img_06918.jpg
1,img_02821.jpg
14,img_07408.jpg
5,img_00634.jpg
5,img_07353.jpg
5,img_07220.jpg
5,img_02002.jpg
5,img_02499.jpg
5,img_07542.jpg
5,img_00228.jpg
5,img_00710.jpg
1,img_07410.jpg
-1,img_04139.jpg
-1,img_01927.jpg
5,img_00379.jpg
-1,img_00706.jpg
1,img_05363.jpg
1,img_06686.jpg
1,img_05070.jpg
1,img_06336.jpg
1,img_01066.jpg
19,img_04878.jpg
1,img_01704.jpg
6,img_07081.jpg
1,img_05358.jpg
-1,img_01316.jpg
5,img_02456.jpg
1,img_04060.jpg
47,img_00897.jpg
5,img_04062.jpg
5,img_06240.jpg
5,img_07705.jpg
19,img_01990.jpg
5,img_02710.jpg
0,img_05628.jpg
5,img_05346.jpg
21,img_07554.jpg
5,img_03226.jpg
0,img_05737.jpg
3,img_02345.jpg
19,img_03579.jpg
5,img_06061.jpg
1,img_03699.jpg
1,img_02926.jpg
5,img_03657.jpg
0,img_03388.jpg
6,img_04018.jpg
3,img_04785.jpg
5,img_03389.jpg
22,img_00848.jpg
1,img_07570.jpg
39,img_01270.jpg
-1,img_05302.jpg
5,img_01358.jpg
5,img_03524.jpg
14,img_06742.jpg
26,img_02751.jpg
5,img_04815.jpg
19,img_06749.jpg
5,img_04362.jpg
26,img_02548.jpg
36,img_06374.jpg
5,img_03512.jpg
19,img_07411.jpg
1,img_01080.jpg
25,img_01521.jpg
5,img_02793.jpg
1,img_01608.jpg
1,img_05287.jpg
1,img_05103.jpg
4,img_05161.jpg
1,img_05546.jpg
49,img_01668.jpg
20,img_07014.jpg
-1,img_04915.jpg
1,img_03713.jpg
5,img_00714.jpg
1,img_04484.jpg
5,img_00522.jpg
1,img_06396.jpg
-1,img_06563.jpg
1,img_02645.jpg
5,img_06156.jpg
5,img_00428.jpg
5,img_06940.jpg
5,img_05040.jpg
19,img_06961.jpg
5,img_07651.jpg
19,img_06062.jpg
33,img_03041.jpg
8,img_05093.jpg
5,img_04032.jpg
5,img_06629.jpg
5,img_04778.jpg
5,img_01374.jpg
37,img_06536.jpg
1,img_06523.jpg
1,img_06146.jpg
0,img_02996.jpg
39,img_02411.jpg
44,img_04367.jpg
0,img_01898.jpg
1,img_00589.jpg
5,img_00177.jpg
5,img_04981.jpg
9,img_01835.jpg
50,img_05965.jpg
40,img_02576.jpg
1,img_07359.jpg
0,img_03485.jpg
25,img_02798.jpg
1,img_01045.jpg
7,img_02176.jpg
5,img_06199.jpg
36,img_04730.jpg
1,img_04519.jpg
42,img_00881.jpg
5,img_03572.jpg
5,img_04441.jpg
0,img_03366.jpg
1,img_02905.jpg
1,img_06699.jpg
1,img_01546.jpg
5,img_01958.jpg
1,img_01518.jpg
5,img_01020.jpg
1,img_01428.jpg
5,img_07424.jpg
5,img_03356.jpg
5,img_01338.jpg
6,img_07684.jpg
16,img_04955.jpg
5,img_00507.jpg
3,img_07364.jpg
6,img_05332.jpg
5,img_03556.jpg
34,img_06176.jpg
0,img_02371.jpg
15,img_01023.jpg
0,img_04868.jpg
5,img_07657.jpg
20,img_00996.jpg
0,img_07396.jpg
0,img_04619.jpg
1,img_05900.jpg
5,img_06561.jpg
5,img_01409.jpg
8,img_01916.jpg
1,img_07879.jpg
9,img_07429.jpg
5,img_01554.jpg
-1,img_05480.jpg
9,img_01721.jpg
47,img_05107.jpg
-1,img_01636.jpg
5,img_01982.jpg
7,img_05300.jpg
1,img_06671.jpg
13,img_06138.jpg
5,img_07275.jpg
23,img_02664.jpg
5,img_01644.jpg
44,img_02934.jpg
1,img_00235.jpg
18,img_02437.jpg
5,img_07241.jpg
8,img_06999.jpg
5,img_03748.jpg
5,img_01897.jpg
0,img_06920.jpg
3,img_00658.jpg
5,img_02349.jpg
5,img_01584.jpg
47,img_07071.jpg
2,img_02361.jpg
19,img_00993.jpg
1,img_00338.jpg
5,img_04851.jpg
1,img_05685.jpg
5,img_03729.jpg
-1,img_00810.jpg
5,img_00672.jpg
9,img_07431.jpg
5,img_02908.jpg
6,img_03845.jpg
23,img_05350.jpg
5,img_04064.jpg
1,img_07145.jpg
37,img_07269.jpg
1,img_04131.jpg
5,img_05815.jpg
6,img_04471.jpg
1,img_02528.jpg
5,img_03616.jpg
51,img_04150.jpg
5,img_04489.jpg
27,img_04557.jpg
8,img_06590.jpg
0,img_01531.jpg
5,img_04670.jpg
23,img_05136.jpg
5,img_00381.jpg
3,img_00062.jpg
5,img_06377.jpg
5,img_01396.jpg
36,img_00279.jpg
9,img_06079.jpg
1,img_05294.jpg
5,img_01884.jpg
35,img_02005.jpg
6,img_02488.jpg
5,img_03662.jpg
8,img_01986.jpg
19,img_00998.jpg
19,img_00754.jpg
1,img_05092.jpg
5,img_02148.jpg
5,img_04617.jpg
1,img_02128.jpg
5,img_00368.jpg
31,img_04545.jpg
5,img_00801.jpg
25,img_07287.jpg
5,img_00821.jpg
8,img_05237.jpg
5,img_02946.jpg
5,img_03859.jpg
24,img_07311.jpg
5,img_02805.jpg
5,img_01382.jpg
32,img_04078.jpg
0,img_02986.jpg
1,img_06532.jpg
5,img_07127.jpg
3,img_06047.jpg
5,img_07159.jpg
1,img_05504.jpg
42,img_02433.jpg
52,img_06727.jpg
19,img_01282.jpg
28,img_05179.jpg
3,img_06256.jpg
5,img_03603.jpg
1,img_07693.jpg
24,img_05110.jpg
1,img_05485.jpg
5,img_07298.jpg
5,img_00367.jpg
-1,img_02377.jpg
1,img_07479.jpg
15,img_05286.jpg
27,img_06827.jpg
5,img_00721.jpg
3,img_03302.jpg
19,img_02481.jpg
3,img_04197.jpg
18,img_02785.jpg
5,img_07439.jpg
1,img_04163.jpg
5,img_03070.jpg
39,img_07562.jpg
-1,img_01926.jpg
5,img_00003.jpg
5,img_02907.jpg
5,img_02955.jpg
1,img_05971.jpg
1,img_00351.jpg
5,img_04893.jpg
5,img_01121.jpg
44,img_03251.jpg
-1,img_00055.jpg
5,img_00250.jpg
0,img_00834.jpg
5,img_05089.jpg
5,img_06989.jpg
3,img_05542.jpg
1,img_07750.jpg
5,img_06868.jpg
-1,img_04296.jpg
-1,img_05102.jpg
0,img_02712.jpg
23,img_03414.jpg
5,img_03708.jpg
0,img_04500.jpg
42,img_06458.jpg
1,img_01175.jpg
19,img_04882.jpg
3,img_07837.jpg
1,img_07090.jpg
1,img_07771.jpg
5,img_01151.jpg
23,img_05621.jpg
5,img_06944.jpg
3,img_01626.jpg
53,img_01933.jpg
0,img_00607.jpg
54,img_02255.jpg
5,img_03191.jpg
5,img_02419.jpg
44,img_01532.jpg
1,img_05519.jpg
30,img_01460.jpg
1,img_02784.jpg
35,img_00668.jpg
1,img_03400.jpg
0,img_02308.jpg
5,img_06586.jpg
1,img_05327.jpg
1,img_05133.jpg
7,img_01440.jpg
1,img_02088.jpg
5,img_05012.jpg
0,img_01915.jpg
5,img_07767.jpg
-1,img_04023.jpg
5,img_07681.jpg
9,img_04208.jpg
-1,img_03357.jpg
20,img_02794.jpg
5,img_01909.jpg
39,img_04876.jpg
5,img_02768.jpg
9,img_04096.jpg
5,img_02039.jpg
1,img_01402.jpg
5,img_04533.jpg
1,img_04732.jpg
5,img_01112.jpg
9,img_05658.jpg
-1,img_05855.jpg
5,img_07180.jpg
1,img_03050.jpg
5,img_02189.jpg
0,img_02689.jpg
5,img_02593.jpg
9,img_06054.jpg
21,img_01273.jpg
47,img_00188.jpg
26,img_03672.jpg
23,img_03902.jpg
5,img_03645.jpg
5,img_00011.jpg
1,img_00535.jpg
54,img_07891.jpg
15,img_06187.jpg
5,img_06560.jpg
5,img_02583.jpg
5,img_00406.jpg
1,img_03183.jpg
7,img_00923.jpg
5,img_01527.jpg
5,img_04768.jpg
5,img_06570.jpg
5,img_07200.jpg
5,img_02031.jpg
5,img_00165.jpg
19,img_02995.jpg
1,img_04936.jpg
19,img_04963.jpg
1,img_01928.jpg
5,img_01082.jpg
5,img_03066.jpg
5,img_05345.jpg
5,img_05852.jpg
1,img_07712.jpg
5,img_06708.jpg
52,img_06942.jpg
5,img_04025.jpg
1,img_07227.jpg
1,img_00033.jpg
9,img_05729.jpg
20,img_05348.jpg
5,img_04873.jpg
36,img_02673.jpg
9,img_06226.jpg
-1,img_04703.jpg
5,img_07305.jpg
14,img_03206.jpg
21,img_06539.jpg
43,img_06152.jpg
5,img_07862.jpg
1,img_02752.jpg
35,img_01931.jpg
5,img_06136.jpg
1,img_00736.jpg
14,img_07058.jpg
1,img_04567.jpg
1,img_03747.jpg
25,img_06299.jpg
14,img_01499.jpg
1,img_05510.jpg
3,img_01714.jpg
1,img_00883.jpg
1,img_04413.jpg
8,img_02260.jpg
10,img_02950.jpg
5,img_00624.jpg
1,img_03723.jpg
9,img_01471.jpg
5,img_06694.jpg
0,img_05633.jpg
25,img_00069.jpg
52,img_07096.jpg
5,img_00342.jpg
5,img_05216.jpg
5,img_06388.jpg
5,img_01943.jpg
-1,img_01911.jpg
5,img_04301.jpg
5,img_01077.jpg
38,img_02901.jpg
44,img_06666.jpg
1,img_04281.jpg
1,img_00359.jpg
1,img_02609.jpg
17,img_01215.jpg
5,img_06231.jpg
5,img_04494.jpg
5,img_05990.jpg
1,img_01086.jpg
-1,img_04395.jpg
43,img_05553.jpg
5,img_00210.jpg
19,img_07092.jpg
0,img_02067.jpg
-1,img_06720.jpg
1,img_04530.jpg
1,img_07653.jpg
-1,img_02364.jpg
16,img_03532.jpg
1,img_05243.jpg
9,img_04273.jpg
38,img_07178.jpg
3,img_04462.jpg
1,img_05744.jpg
5,img_07491.jpg
5,img_06350.jpg
25,img_01470.jpg
39,img_02262.jpg
10,img_01826.jpg
0,img_02007.jpg
9,img_07828.jpg
39,img_00539.jpg
25,img_00573.jpg
8,img_03148.jpg
-1,img_04005.jpg
54,img_02355.jpg
47,img_01816.jpg
5,img_07850.jpg
9,img_05624.jpg
1,img_07427.jpg
5,img_01480.jpg
5,img_07405.jpg
26,img_04509.jpg
5,img_06428.jpg
26,img_04045.jpg
5,img_07876.jpg
40,img_03257.jpg
-1,img_07773.jpg
7,img_05986.jpg
1,img_06651.jpg
5,img_07225.jpg
0,img_00353.jpg
2,img_02112.jpg
19,img_03904.jpg
11,img_04650.jpg
5,img_01917.jpg
1,img_04093.jpg
26,img_01421.jpg
5,img_05266.jpg
5,img_01875.jpg
53,img_04327.jpg
1,img_00275.jpg
5,img_05017.jpg
5,img_01822.jpg
19,img_07377.jpg
24,img_01218.jpg
1,img_04551.jpg
1,img_00871.jpg
5,img_04633.jpg
26,img_06366.jpg
5,img_04380.jpg
38,img_03466.jpg
21,img_03664.jpg
55,img_06198.jpg
5,img_01425.jpg
7,img_06881.jpg
26,img_00008.jpg
6,img_02888.jpg
5,img_00251.jpg
66,img_06422.jpg
5,img_05641.jpg
-1,img_06804.jpg
4,img_01255.jpg
52,img_05636.jpg
9,img_01535.jpg
0,img_02492.jpg
2,img_05101.jpg
24,img_02967.jpg
5,img_03940.jpg
1,img_06850.jpg
9,img_06072.jpg
3,img_05875.jpg
3,img_03691.jpg
1,img_07441.jpg
5,img_06437.jpg
5,img_05446.jpg
26,img_06969.jpg
5,img_01910.jpg
1,img_03262.jpg
34,img_06083.jpg
48,img_05574.jpg
1,img_05708.jpg
9,img_01087.jpg
1,img_03061.jpg
12,img_03224.jpg
1,img_01795.jpg
5,img_00908.jpg
5,img_05154.jpg
19,img_03827.jpg
1,img_02874.jpg
5,img_06360.jpg
19,img_07222.jpg
8,img_01989.jpg
-1,img_02870.jpg
3,img_02461.jpg
5,img_00183.jpg
0,img_03037.jpg
26,img_05254.jpg
-1,img_03757.jpg
5,img_01901.jpg
1,img_00287.jpg
34,img_02113.jpg
1,img_03096.jpg
1,img_00436.jpg
5,img_06675.jpg
1,img_00288.jpg
38,img_00665.jpg
5,img_03694.jpg
5,img_05397.jpg
12,img_07801.jpg
5,img_01522.jpg
9,img_07782.jpg
0,img_07706.jpg
5,img_04154.jpg
5,img_04883.jpg
46,img_05262.jpg
20,img_02762.jpg
-1,img_06196.jpg
5,img_03483.jpg
1,img_00096.jpg
5,img_06390.jpg
19,img_07914.jpg
26,img_04200.jpg
38,img_03950.jpg
-1,img_05319.jpg
48,img_07752.jpg
6,img_04153.jpg
4,img_07749.jpg
5,img_04366.jpg
19,img_04377.jpg
5,img_00987.jpg
11,img_03305.jpg
26,img_00609.jpg
5,img_03359.jpg
40,img_07464.jpg
5,img_03163.jpg
0,img_01241.jpg
34,img_02192.jpg
26,img_05461.jpg
42,img_00546.jpg
34,img_04319.jpg
13,img_07400.jpg
1,img_00482.jpg
5,img_07662.jpg
5,img_07868.jpg
1,img_06464.jpg
5,img_00869.jpg
26,img_00645.jpg
5,img_02331.jpg
1,img_04911.jpg
1,img_00712.jpg
9,img_02976.jpg
6,img_01680.jpg
1,img_05166.jpg
5,img_06503.jpg
3,img_03783.jpg
5,img_01451.jpg
5,img_05763.jpg
3,img_01461.jpg
5,img_07664.jpg
5,img_00508.jpg
1,img_02134.jpg
5,img_00284.jpg
1,img_01185.jpg
5,img_04953.jpg
1,img_03007.jpg
0,img_01411.jpg
5,img_07500.jpg
32,img_07549.jpg
23,img_05227.jpg
42,img_07768.jpg
5,img_02653.jpg
9,img_02748.jpg
5,img_02719.jpg
19,img_01810.jpg
16,img_02184.jpg
1,img_02792.jpg
1,img_07472.jpg
5,img_03039.jpg
1,img_03453.jpg
5,img_01936.jpg
9,img_01055.jpg
5,img_06039.jpg
5,img_03738.jpg
5,img_02373.jpg
8,img_04682.jpg
5,img_04827.jpg
1,img_03345.jpg
34,img_02174.jpg
26,img_01475.jpg
5,img_06178.jpg
5,img_06923.jpg
5,img_05456.jpg
-1,img_00601.jpg
-1,img_03186.jpg
24,img_00225.jpg
5,img_03506.jpg
5,img_05097.jpg
5,img_02547.jpg
1,img_07048.jpg
24,img_05974.jpg
16,img_03348.jpg
1,img_03971.jpg
1,img_03649.jpg
1,img_00440.jpg
19,img_01398.jpg
3,img_07339.jpg
5,img_06462.jpg
37,img_02758.jpg
1,img_02446.jpg
0,img_06797.jpg
9,img_01064.jpg
5,img_06114.jpg
5,img_00911.jpg
-1,img_04227.jpg
9,img_00565.jpg
5,img_06935.jpg
-1,img_02820.jpg
1,img_03395.jpg
1,img_05282.jpg
50,img_04331.jpg
-1,img_01638.jpg
5,img_02885.jpg
5,img_07440.jpg
34,img_01287.jpg
5,img_06239.jpg
-1,img_00118.jpg
38,img_06711.jpg
0,img_04744.jpg
19,img_01074.jpg
19,img_03384.jpg
45,img_05228.jpg
6,img_01858.jpg
26,img_00887.jpg
24,img_04048.jpg
5,img_04652.jpg
5,img_03501.jpg
39,img_05048.jpg
14,img_00553.jpg
9,img_00298.jpg
9,img_02559.jpg
0,img_02387.jpg
5,img_06545.jpg
5,img_05384.jpg
0,img_00295.jpg
40,img_03386.jpg
3,img_06889.jpg
6,img_06833.jpg
5,img_01929.jpg
14,img_07687.jpg
19,img_00156.jpg
5,img_04931.jpg
5,img_07214.jpg
5,img_00630.jpg
1,img_00967.jpg
1,img_05257.jpg
-1,img_02323.jpg
35,img_02652.jpg
5,img_06887.jpg
5,img_01742.jpg
5,img_05413.jpg
26,img_07679.jpg
0,img_00997.jpg
53,img_07164.jpg
26,img_04544.jpg
1,img_07745.jpg
5,img_02460.jpg
32,img_03620.jpg
6,img_02396.jpg
0,img_05108.jpg
21,img_00237.jpg
1,img_07915.jpg
5,img_06706.jpg
5,img_00209.jpg
7,img_05249.jpg
3,img_04842.jpg
1,img_02348.jpg
5,img_04011.jpg
42,img_02286.jpg
3,img_00748.jpg
5,img_07476.jpg
15,img_04588.jpg
5,img_04031.jpg
44,img_06271.jpg
5,img_05885.jpg
-1,img_01583.jpg
42,img_02729.jpg
5,img_07254.jpg
15,img_07459.jpg
6,img_03143.jpg
19,img_05315.jpg
-1,img_00184.jpg
1,img_01662.jpg
5,img_03491.jpg
5,img_01400.jpg
0,img_06284.jpg
16,img_02542.jpg
8,img_00615.jpg
5,img_05710.jpg
5,img_06058.jpg
5,img_06383.jpg
7,img_06410.jpg
5,img_04320.jpg
5,img_04436.jpg
9,img_07510.jpg
5,img_02099.jpg
2,img_06633.jpg
21,img_02879.jpg
5,img_01806.jpg
5,img_04762.jpg
0,img_04828.jpg
1,img_05942.jpg
-1,img_07258.jpg
1,img_07652.jpg
36,img_03585.jpg
9,img_06599.jpg
3,img_00766.jpg
8,img_02557.jpg
6,img_02229.jpg
5,img_02541.jpg
5,img_01919.jpg
19,img_02063.jpg
1,img_01042.jpg
5,img_01607.jpg
56,img_05376.jpg
5,img_07193.jpg
1,img_05680.jpg
20,img_06950.jpg
5,img_01117.jpg
64,img_03771.jpg
1,img_04729.jpg
36,img_06487.jpg
1,img_07854.jpg
1,img_06915.jpg
6,img_06372.jpg
47,img_07704.jpg
1,img_07069.jpg
5,img_05810.jpg
14,img_05957.jpg
5,img_05938.jpg
5,img_01160.jpg
16,img_00227.jpg
1,img_06363.jpg
34,img_01985.jpg
23,img_03858.jpg
9,img_07602.jpg
5,img_06420.jpg
9,img_06782.jpg
1,img_02880.jpg
57,img_02579.jpg
42,img_06229.jpg
5,img_07328.jpg
35,img_02068.jpg
54,img_03824.jpg
9,img_00253.jpg
19,img_01021.jpg
0,img_06824.jpg
58,img_06116.jpg
16,img_01109.jpg
13,img_02365.jpg
1,img_07466.jpg
10,img_04997.jpg
14,img_00315.jpg
3,img_04801.jpg
3,img_05984.jpg
53,img_05848.jpg
39,img_04681.jpg
0,img_01299.jpg
33,img_01190.jpg
33,img_00366.jpg
1,img_07021.jpg
5,img_03884.jpg
3,img_06398.jpg
0,img_02525.jpg
5,img_03800.jpg
1,img_06721.jpg
1,img_03432.jpg
9,img_07728.jpg
42,img_05518.jpg
1,img_00412.jpg
9,img_06395.jpg
1,img_07072.jpg
1,img_05054.jpg
38,img_03698.jpg
5,img_05912.jpg
5,img_06264.jpg
-1,img_07300.jpg
1,img_03644.jpg
5,img_05274.jpg
19,img_05604.jpg
16,img_05512.jpg
19,img_03797.jpg
5,img_01950.jpg
9,img_03189.jpg
21,img_07847.jpg
1,img_07665.jpg
5,img_04463.jpg
1,img_04668.jpg
19,img_03798.jpg
27,img_02139.jpg
8,img_00039.jpg
5,img_04368.jpg
19,img_06104.jpg
42,img_07755.jpg
1,img_04495.jpg
5,img_00691.jpg
5,img_04391.jpg
1,img_06364.jpg
5,img_07470.jpg
11,img_04855.jpg
1,img_06956.jpg
0,img_01539.jpg
36,img_05024.jpg
3,img_07601.jpg
0,img_00361.jpg
1,img_00409.jpg
9,img_01596.jpg
19,img_06583.jpg
1,img_07864.jpg
43,img_01166.jpg
5,img_05777.jpg
3,img_03542.jpg
5,img_00809.jpg
5,img_02160.jpg
42,img_02862.jpg
5,img_03785.jpg
23,img_07512.jpg
0,img_01700.jpg
1,img_01093.jpg
3,img_02015.jpg
1,img_06644.jpg
34,img_06018.jpg
3,img_05050.jpg
5,img_07729.jpg
5,img_04685.jpg
19,img_02108.jpg
5,img_06463.jpg
5,img_02208.jpg
1,img_06879.jpg
1,img_07451.jpg
19,img_04904.jpg
0,img_04977.jpg
32,img_01238.jpg
1,img_07139.jpg
1,img_06768.jpg
5,img_07672.jpg
5,img_05745.jpg
59,img_00278.jpg
16,img_03151.jpg
0,img_00537.jpg
21,img_02376.jpg
5,img_07614.jpg
5,img_07863.jpg
19,img_05057.jpg
5,img_04006.jpg
5,img_05759.jpg
5,img_05533.jpg
52,img_04106.jpg
0,img_04627.jpg
44,img_04947.jpg
-1,img_04982.jpg
5,img_01869.jpg
37,img_04297.jpg
1,img_02360.jpg
38,img_01690.jpg
1,img_03905.jpg
5,img_00221.jpg
1,img_00670.jpg
-1,img_02047.jpg
39,img_06900.jpg
30,img_06381.jpg
1,img_03939.jpg
24,img_05431.jpg
1,img_01143.jpg
1,img_06474.jpg
2,img_06157.jpg
9,img_04314.jpg
6,img_06512.jpg
13,img_01842.jpg
3,img_01383.jpg
5,img_06494.jpg
1,img_03430.jpg
0,img_06572.jpg
1,img_06228.jpg
60,img_01625.jpg
5,img_01039.jpg
5,img_06289.jpg
5,img_06149.jpg
19,img_00878.jpg
5,img_05132.jpg
1,img_05399.jpg
0,img_02178.jpg
-1,img_07597.jpg
7,img_02642.jpg
5,img_00687.jpg
9,img_03301.jpg
5,img_05618.jpg
1,img_00218.jpg
5,img_06996.jpg
9,img_04316.jpg
53,img_05748.jpg
7,img_07022.jpg
-1,img_00961.jpg
1,img_00433.jpg
18,img_04378.jpg
1,img_07922.jpg
1,img_00802.jpg
24,img_05065.jpg
38,img_00747.jpg
5,img_06132.jpg
3,img_05891.jpg
1,img_04464.jpg
9,img_04672.jpg
5,img_05352.jpg
5,img_05353.jpg
5,img_00038.jpg
1,img_00333.jpg
0,img_05460.jpg
5,img_07890.jpg
5,img_02595.jpg
1,img_02732.jpg
5,img_00701.jpg
5,img_05201.jpg
43,img_07378.jpg
1,img_06600.jpg
9,img_05858.jpg
5,img_02728.jpg
1,img_04199.jpg
9,img_00362.jpg
1,img_02421.jpg
1,img_02080.jpg
5,img_06329.jpg
5,img_03678.jpg
0,img_00722.jpg
49,img_00888.jpg
0,img_02086.jpg
26,img_04889.jpg
42,img_04474.jpg
28,img_01129.jpg
5,img_03424.jpg
5,img_06402.jpg
20,img_02630.jpg
1,img_04988.jpg
9,img_00395.jpg
5,img_01424.jpg
1,img_04430.jpg
9,img_02884.jpg
5,img_05164.jpg
1,img_07811.jpg
5,img_00020.jpg
23,img_04630.jpg
16,img_06213.jpg
-1,img_01540.jpg
9,img_06765.jpg
1,img_05111.jpg
19,img_07117.jpg
6,img_05648.jpg
5,img_06092.jpg
1,img_03387.jpg
5,img_07727.jpg
5,img_01445.jpg
14,img_00516.jpg
31,img_06075.jpg
13,img_03540.jpg
5,img_07588.jpg
1,img_05945.jpg
5,img_05751.jpg
15,img_06125.jpg
5,img_00745.jpg
1,img_03553.jpg
5,img_04392.jpg
1,img_01691.jpg
19,img_03955.jpg
27,img_07007.jpg
1,img_02346.jpg
0,img_04283.jpg
5,img_02185.jpg
36,img_05116.jpg
1,img_06247.jpg
5,img_00526.jpg
1,img_02928.jpg
8,img_05872.jpg
5,img_01570.jpg
1,img_00063.jpg
5,img_03841.jpg
5,img_06257.jpg
50,img_02962.jpg
5,img_01660.jpg
1,img_03575.jpg
9,img_06434.jpg
14,img_04188.jpg
14,img_04623.jpg
38,img_00074.jpg
5,img_01778.jpg
5,img_07527.jpg
1,img_02449.jpg
5,img_04290.jpg
1,img_01620.jpg
-1,img_03775.jpg
1,img_05662.jpg
-1,img_02484.jpg
5,img_00862.jpg
51,img_00126.jpg
5,img_07579.jpg
39,img_02990.jpg
1,img_00955.jpg
5,img_06050.jpg
1,img_01559.jpg
5,img_07016.jpg
42,img_05998.jpg
1,img_06898.jpg
3,img_06222.jpg
14,img_01775.jpg
1,img_06574.jpg
1,img_00738.jpg
5,img_03682.jpg
0,img_04059.jpg
9,img_07714.jpg
5,img_07280.jpg
44,img_01610.jpg
1,img_05041.jpg
39,img_06404.jpg
3,img_02158.jpg
1,img_02016.jpg
1,img_03371.jpg
1,img_06298.jpg
5,img_06204.jpg
5,img_07911.jpg
34,img_04983.jpg
18,img_00047.jpg
3,img_06248.jpg
5,img_04822.jpg
21,img_02875.jpg
5,img_07171.jpg
5,img_03746.jpg
5,img_01361.jpg
39,img_03340.jpg
1,img_03549.jpg
5,img_04049.jpg
23,img_04848.jpg
9,img_00803.jpg
-1,img_05414.jpg
5,img_02353.jpg
-1,img_03552.jpg
21,img_00481.jpg
1,img_06087.jpg
5,img_07009.jpg
52,img_04308.jpg
5,img_00290.jpg
1,img_07797.jpg
5,img_04573.jpg
1,img_05344.jpg
5,img_06340.jpg
0,img_02362.jpg
0,img_05369.jpg
26,img_04686.jpg
5,img_03625.jpg
1,img_00806.jpg
1,img_04693.jpg
9,img_01076.jpg
5,img_04383.jpg
5,img_01141.jpg
22,img_01639.jpg
5,img_00262.jpg
1,img_07698.jpg
9,img_00896.jpg
5,img_04692.jpg
5,img_02393.jpg
0,img_03622.jpg
5,img_03969.jpg
1,img_04857.jpg
1,img_02469.jpg
13,img_05333.jpg
5,img_05502.jpg
1,img_06509.jpg
5,img_03308.jpg
1,img_02959.jpg
5,img_00561.jpg
1,img_01878.jpg
26,img_00143.jpg
1,img_00851.jpg
13,img_00061.jpg
5,img_02691.jpg
5,img_06252.jpg
42,img_05806.jpg
5,img_01753.jpg
9,img_06650.jpg
5,img_06801.jpg
5,img_05821.jpg
9,img_02432.jpg
19,img_01240.jpg
1,img_05644.jpg
-1,img_07001.jpg
1,img_06846.jpg
36,img_04859.jpg
9,img_03898.jpg
16,img_02171.jpg
9,img_00238.jpg
8,img_05887.jpg
1,img_00052.jpg
14,img_03796.jpg
5,img_04493.jpg
5,img_06627.jpg
1,img_01464.jpg
1,img_04490.jpg
5,img_03271.jpg
5,img_04480.jpg
15,img_01333.jpg
9,img_01346.jpg
-1,img_05442.jpg
9,img_01854.jpg
5,img_04228.jpg
52,img_02232.jpg
1,img_06209.jpg
-1,img_02970.jpg
31,img_07272.jpg
32,img_04248.jpg
38,img_06143.jpg
1,img_04277.jpg
0,img_04217.jpg
1,img_04853.jpg
1,img_03779.jpg
37,img_07176.jpg
9,img_01974.jpg
1,img_01709.jpg
46,img_06656.jpg
5,img_03794.jpg
0,img_03787.jpg
57,img_03668.jpg
1,img_03712.jpg
42,img_05734.jpg
61,img_02545.jpg
52,img_07450.jpg
5,img_05256.jpg
5,img_01925.jpg
5,img_07779.jpg
6,img_04098.jpg
5,img_03687.jpg
1,img_00733.jpg
1,img_06093.jpg
5,img_03376.jpg
26,img_01922.jpg
5,img_03856.jpg
1,img_07898.jpg
53,img_01725.jpg
1,img_07613.jpg
-1,img_03047.jpg
5,img_00566.jpg
9,img_02937.jpg
32,img_02671.jpg
19,img_03145.jpg
1,img_02283.jpg
42,img_03499.jpg
47,img_04847.jpg
5,img_06906.jpg
5,img_00021.jpg
5,img_00781.jpg
42,img_05419.jpg
5,img_03458.jpg
5,img_00090.jpg
1,img_01817.jpg
1,img_06419.jpg
1,img_01693.jpg
0,img_05851.jpg
40,img_07268.jpg
1,img_04359.jpg
1,img_05860.jpg
5,img_07067.jpg
5,img_07639.jpg
1,img_00958.jpg
5,img_03089.jpg
0,img_04951.jpg
18,img_00215.jpg
1,img_01201.jpg
20,img_05453.jpg
5,img_01105.jpg
8,img_03385.jpg
5,img_00194.jpg
5,img_05632.jpg
-1,img_07785.jpg
44,img_07759.jpg
1,img_00325.jpg
15,img_01139.jpg
5,img_06948.jpg
10,img_06864.jpg
-1,img_03048.jpg
8,img_07134.jpg
1,img_06818.jpg
0,img_02103.jpg
1,img_01113.jpg
8,img_03117.jpg
9,img_01429.jpg
1,img_02478.jpg
5,img_02186.jpg
5,img_01217.jpg
9,img_03409.jpg
5,img_03150.jpg
-1,img_03780.jpg
5,img_01735.jpg
5,img_04092.jpg
1,img_05223.jpg
60,img_07025.jpg
42,img_02948.jpg
1,img_05329.jpg
25,img_01335.jpg
24,img_04179.jpg
5,img_00197.jpg
15,img_04552.jpg
-1,img_06822.jpg
3,img_03332.jpg
5,img_06610.jpg
1,img_05588.jpg
1,img_01401.jpg
0,img_06012.jpg
43,img_07306.jpg
19,img_03125.jpg
33,img_03911.jpg
5,img_01246.jpg
49,img_07902.jpg
1,img_04583.jpg
5,img_01560.jpg
3,img_07198.jpg
5,img_07641.jpg
-1,img_07465.jpg
1,img_06578.jpg
9,img_07261.jpg
5,img_01980.jpg
5,img_00384.jpg
42,img_07670.jpg
7,img_01307.jpg
5,img_07404.jpg
19,img_07822.jpg
-1,img_06781.jpg
0,img_02917.jpg
39,img_01156.jpg
21,img_04345.jpg
1,img_06262.jpg
1,img_06677.jpg
18,img_04706.jpg
8,img_05019.jpg
49,img_07059.jpg
1,img_06988.jpg
36,img_07644.jpg
5,img_07710.jpg
-1,img_00994.jpg
5,img_05849.jpg
5,img_06461.jpg
18,img_03482.jpg
5,img_01599.jpg
20,img_00790.jpg
47,img_00028.jpg
0,img_02737.jpg
0,img_06417.jpg
-1,img_06514.jpg
14,img_03933.jpg
5,img_07496.jpg
39,img_05451.jpg
5,img_07291.jpg
26,img_02431.jpg
5,img_05936.jpg
7,img_03770.jpg
27,img_01194.jpg
1,img_01128.jpg
5,img_02014.jpg
1,img_03437.jpg
1,img_00191.jpg
38,img_00752.jpg
5,img_05836.jpg
1,img_02104.jpg
53,img_06772.jpg
5,img_02863.jpg
5,img_06014.jpg
1,img_04660.jpg
5,img_03951.jpg
5,img_03278.jpg
5,img_06282.jpg
1,img_01239.jpg
5,img_06653.jpg
5,img_06819.jpg
1,img_04684.jpg
1,img_01356.jpg
14,img_01203.jpg
8,img_04177.jpg
10,img_05980.jpg
-1,img_05832.jpg
1,img_06376.jpg
5,img_06566.jpg
5,img_02992.jpg
29,img_03038.jpg
1,img_00072.jpg
8,img_07826.jpg
1,img_01455.jpg
1,img_04710.jpg
5,img_01311.jpg
5,img_03266.jpg
5,img_00127.jpg
6,img_00957.jpg
52,img_03194.jpg
18,img_03536.jpg
5,img_00893.jpg
51,img_03742.jpg
1,img_05310.jpg
0,img_04033.jpg
1,img_06445.jpg
57,img_03756.jpg
9,img_01370.jpg
-1,img_06375.jpg
5,img_05733.jpg
5,img_01452.jpg
1,img_01406.jpg
41,img_06339.jpg
0,img_01844.jpg
5,img_01070.jpg
5,img_03855.jpg
1,img_07374.jpg
5,img_03374.jpg
0,img_03063.jpg
5,img_07457.jpg
14,img_04645.jpg
2,img_03215.jpg
7,img_00685.jpg
53,img_05314.jpg
37,img_03052.jpg
38,img_04090.jpg
5,img_04561.jpg
-1,img_02342.jpg
1,img_06382.jpg
5,img_04543.jpg
0,img_07581.jpg
10,img_07604.jpg
5,img_04140.jpg
5,img_03586.jpg
26,img_02873.jpg
5,img_07603.jpg
1,img_03286.jpg
3,img_07351.jpg
37,img_00784.jpg
39,img_04077.jpg
1,img_00097.jpg
1,img_03558.jpg
5,img_00299.jpg
5,img_05715.jpg
0,img_06481.jpg
3,img_04071.jpg
5,img_03287.jpg
5,img_07674.jpg
5,img_03119.jpg
13,img_02919.jpg
5,img_03081.jpg
1,img_01324.jpg
5,img_05554.jpg
42,img_01823.jpg
13,img_03710.jpg
5,img_02485.jpg
5,img_00756.jpg
-1,img_01079.jpg
9,img_00680.jpg
5,img_00939.jpg
5,img_04939.jpg
1,img_00163.jpg
1,img_05655.jpg
5,img_05083.jpg
9,img_00404.jpg
59,img_03237.jpg
3,img_02357.jpg
5,img_00899.jpg
0,img_01199.jpg
1,img_07435.jpg
9,img_06592.jpg
29,img_00719.jpg
0,img_01498.jpg
0,img_06862.jpg
-1,img_00136.jpg
5,img_05323.jpg
9,img_00352.jpg
44,img_00739.jpg
15,img_02324.jpg
5,img_03714.jpg
1,img_02011.jpg
9,img_04694.jpg
5,img_03752.jpg
5,img_03821.jpg
5,img_01833.jpg
8,img_05550.jpg
5,img_01063.jpg
1,img_02036.jpg
1,img_05873.jpg
21,img_02044.jpg
6,img_01085.jpg
5,img_02745.jpg
36,img_07609.jpg
0,img_07055.jpg
39,img_06672.jpg
0,img_06771.jpg
1,img_01747.jpg
1,img_05711.jpg
19,img_05131.jpg
9,img_01153.jpg
44,img_00890.jpg
9,img_05571.jpg
1,img_00886.jpg
1,img_05462.jpg
15,img_01601.jpg
-1,img_04488.jpg
7,img_02259.jpg
5,img_00401.jpg
5,img_05123.jpg
5,img_01261.jpg
5,img_00975.jpg
1,img_00633.jpg
1,img_03363.jpg
5,img_07511.jpg
5,img_03360.jpg
9,img_06635.jpg
0,img_07901.jpg
5,img_01812.jpg
5,img_04039.jpg
5,img_07335.jpg
19,img_07123.jpg
9,img_05184.jpg
32,img_06588.jpg
27,img_00443.jpg
5,img_04880.jpg
5,img_03216.jpg
5,img_00898.jpg
1,img_04614.jpg
1,img_00843.jpg
5,img_03515.jpg
5,img_07299.jpg
5,img_02742.jpg
1,img_06952.jpg
-1,img_05503.jpg
1,img_01779.jpg
5,img_07040.jpg
1,img_05143.jpg
5,img_01948.jpg
5,img_05889.jpg
42,img_07669.jpg
5,img_00744.jpg
5,img_00226.jpg
5,img_00496.jpg
5,img_03031.jpg
5,img_06931.jpg
34,img_03250.jpg
1,img_00472.jpg
5,img_01973.jpg
5,img_07223.jpg
8,img_02302.jpg
5,img_00337.jpg
1,img_01654.jpg
8,img_03489.jpg
44,img_02199.jpg
9,img_06171.jpg
1,img_01780.jpg
0,img_04070.jpg
5,img_04967.jpg
19,img_04987.jpg
5,img_00817.jpg
5,img_06652.jpg
0,img_06027.jpg
0,img_01696.jpg
-1,img_07121.jpg
21,img_05666.jpg
1,img_06022.jpg
0,img_03880.jpg
14,img_00360.jpg
0,img_05894.jpg
5,img_06607.jpg
5,img_07916.jpg
5,img_06907.jpg
19,img_03879.jpg
59,img_06069.jpg
16,img_00679.jpg
5,img_04969.jpg
5,img_02201.jpg
6,img_03323.jpg
19,img_07735.jpg
46,img_03686.jpg
8,img_06444.jpg
19,img_00525.jpg
5,img_02519.jpg
3,img_02650.jpg
1,img_01233.jpg
56,img_02551.jpg
5,img_05239.jpg
19,img_01682.jpg
64,img_05005.jpg
0,img_03938.jpg
5,img_05153.jpg
38,img_01410.jpg
5,img_04473.jpg
5,img_00263.jpg
1,img_05769.jpg
6,img_06344.jpg
1,img_01972.jpg
0,img_00807.jpg
1,img_06316.jpg
21,img_03709.jpg
38,img_00653.jpg
9,img_01938.jpg
57,img_02500.jpg
5,img_01336.jpg
38,img_02250.jpg
5,img_01355.jpg
0,img_03176.jpg
15,img_03411.jpg
0,img_02069.jpg
49,img_05784.jpg
5,img_04309.jpg
-1,img_04517.jpg
5,img_01921.jpg
9,img_05616.jpg
0,img_01323.jpg
5,img_02202.jpg
5,img_02236.jpg
0,img_02149.jpg
0,img_05566.jpg
51,img_06044.jpg
58,img_06825.jpg
11,img_01572.jpg
1,img_04012.jpg
22,img_02680.jpg
21,img_05178.jpg
5,img_07587.jpg
8,img_02534.jpg
5,img_05939.jpg
2,img_03369.jpg
1,img_04825.jpg
12,img_01029.jpg
9,img_02529.jpg
5,img_03531.jpg
5,img_04994.jpg
65,img_04626.jpg
1,img_01364.jpg
1,img_06260.jpg
1,img_05126.jpg
5,img_02289.jpg
1,img_00478.jpg
19,img_04205.jpg
1,img_02690.jpg
1,img_03755.jpg
5,img_04875.jpg
-1,img_00502.jpg
24,img_07734.jpg
37,img_04741.jpg
14,img_01738.jpg
5,img_02727.jpg
5,img_04330.jpg
-1,img_04063.jpg
26,img_01097.jpg
-1,img_07290.jpg
5,img_03807.jpg
0,img_05165.jpg
3,img_00818.jpg
42,img_05204.jpg
7,img_04718.jpg
18,img_06910.jpg
23,img_06970.jpg
39,img_00014.jpg
6,img_03600.jpg
1,img_02025.jpg
5,img_01534.jpg
-1,img_01454.jpg
0,img_00348.jpg
0,img_03643.jpg
1,img_03791.jpg
5,img_04950.jpg
1,img_04050.jpg
5,img_04014.jpg
5,img_07903.jpg
0,img_07366.jpg
1,img_04819.jpg
1,img_03651.jpg
5,img_07115.jpg
5,img_06700.jpg
1,img_03546.jpg
-1,img_01017.jpg
1,img_03922.jpg
-1,img_04166.jpg
18,img_03463.jpg
19,img_06439.jpg
8,img_01737.jpg
1,img_00600.jpg
5,img_00928.jpg
5,img_00847.jpg
19,img_01262.jpg
8,img_06215.jpg
0,img_02910.jpg
1,img_02867.jpg
20,img_06096.jpg
19,img_07709.jpg
5,img_05226.jpg
5,img_01556.jpg
5,img_01362.jpg
5,img_07168.jpg
-1,img_01193.jpg
5,img_03881.jpg
5,img_02843.jpg
1,img_06124.jpg
37,img_05081.jpg
1,img_05669.jpg
9,img_07648.jpg
53,img_01350.jpg
1,img_03976.jpg
36,img_05913.jpg
1,img_00678.jpg
1,img_06493.jpg
5,img_04164.jpg
5,img_01697.jpg
5,img_01071.jpg
5,img_02774.jpg
3,img_00471.jpg
32,img_01458.jpg
20,img_01819.jpg
2,img_02263.jpg
5,img_03873.jpg
5,img_07522.jpg
34,img_00782.jpg
5,img_02106.jpg
5,img_06987.jpg
48,img_06567.jpg
66,img_01838.jpg
5,img_04728.jpg
5,img_04196.jpg
5,img_00277.jpg
5,img_01478.jpg
-1,img_06726.jpg
5,img_00824.jpg
0,img_02220.jpg
1,img_06687.jpg
15,img_00327.jpg
42,img_01466.jpg
23,img_02856.jpg
1,img_06319.jpg
62,img_06393.jpg
5,img_01699.jpg
49,img_02554.jpg
1,img_01855.jpg
5,img_02823.jpg
5,img_01686.jpg
55,img_00312.jpg
34,img_00595.jpg
9,img_02368.jpg
9,img_01712.jpg
5,img_01025.jpg
5,img_03246.jpg
14,img_05115.jpg
3,img_05395.jpg
8,img_03507.jpg
19,img_03913.jpg
-1,img_00570.jpg
1,img_06645.jpg
0,img_01905.jpg
-1,img_04506.jpg
5,img_06160.jpg
53,img_03759.jpg
26,img_04956.jpg
5,img_04592.jpg
10,img_03642.jpg
55,img_01472.jpg
5,img_02177.jpg
9,img_03833.jpg
5,img_07257.jpg
5,img_06929.jpg
5,img_00435.jpg
1,img_04791.jpg
5,img_05494.jpg
3,img_05455.jpg
1,img_06622.jpg
5,img_04612.jpg
1,img_06450.jpg
-1,img_00949.jpg
1,img_07874.jpg
1,img_06709.jpg
1,img_02296.jpg
1,img_00296.jpg
5,img_07273.jpg
5,img_03365.jpg
5,img_01655.jpg
5,img_01797.jpg
8,img_05579.jpg
26,img_04009.jpg
12,img_07520.jpg
9,img_04933.jpg
47,img_04590.jpg
1,img_04823.jpg
7,img_00510.jpg
3,img_01094.jpg
1,img_07547.jpg
5,img_03174.jpg
-1,img_01363.jpg
1,img_07018.jpg
21,img_06086.jpg
3,img_01297.jpg
59,img_04774.jpg
-1,img_03680.jpg
1,img_04087.jpg
5,img_05444.jpg
7,img_00231.jpg
1,img_02352.jpg
23,img_07076.jpg
19,img_02477.jpg
1,img_00540.jpg
5,img_03049.jpg
9,img_05014.jpg
1,img_04467.jpg
0,img_00689.jpg
9,img_02038.jpg
1,img_05172.jpg
1,img_06897.jpg
39,img_06085.jpg
14,img_04674.jpg
42,img_04877.jpg
5,img_07105.jpg
5,img_01037.jpg
1,img_07557.jpg
19,img_06518.jpg
1,img_00154.jpg
19,img_00863.jpg
26,img_02435.jpg
1,img_03341.jpg
6,img_04968.jpg
48,img_04912.jpg
-1,img_06451.jpg
2,img_04792.jpg
5,img_06286.jpg
5,img_07519.jpg
35,img_02725.jpg
19,img_04874.jpg
5,img_03850.jpg
1,img_06984.jpg
9,img_02505.jpg
17,img_06613.jpg
19,img_06279.jpg
5,img_02392.jpg
5,img_04958.jpg
42,img_07030.jpg
18,img_00651.jpg
36,img_03160.jpg
9,img_02225.jpg
-1,img_00447.jpg
38,img_03985.jpg
0,img_07566.jpg
5,img_03526.jpg
1,img_05031.jpg
1,img_04907.jpg
5,img_01024.jpg
3,img_06953.jpg
5,img_05309.jpg
25,img_04373.jpg
5,img_05560.jpg
5,img_02072.jpg
15,img_04806.jpg
1,img_03758.jpg
66,img_03576.jpg
40,img_03460.jpg
5,img_00576.jpg
6,img_03932.jpg
6,img_03851.jpg
3,img_04216.jpg
5,img_02410.jpg
5,img_06843.jpg
39,img_01783.jpg
0,img_02474.jpg
5,img_07660.jpg
14,img_00504.jpg
-1,img_06081.jpg
3,img_00390.jpg
14,img_04475.jpg
5,img_01678.jpg
7,img_01342.jpg
1,img_07649.jpg
35,img_02399.jpg
0,img_05594.jpg
5,img_03112.jpg
5,img_03209.jpg
-1,img_03519.jpg
1,img_04040.jpg
5,img_04920.jpg
20,img_07397.jpg
9,img_02966.jpg
58,img_02115.jpg
5,img_03212.jpg
19,img_04976.jpg
42,img_05818.jpg
-1,img_05804.jpg
0,img_05975.jpg
0,img_06094.jpg
5,img_07039.jpg
5,img_06979.jpg
5,img_03716.jpg
5,img_00820.jpg
1,img_01008.jpg
63,img_01992.jpg
1,img_06875.jpg
5,img_01896.jpg
5,img_03661.jpg
1,img_00558.jpg
26,img_01568.jpg
1,img_03296.jpg
22,img_07627.jpg
9,img_01481.jpg
1,img_07499.jpg
1,img_01578.jpg
7,img_00774.jpg
5,img_01542.jpg
23,img_03123.jpg
55,img_06769.jpg
1,img_01432.jpg
1,img_03568.jpg
1,img_04042.jpg
20,img_05600.jpg
5,img_01547.jpg
5,img_04147.jpg
5,img_06858.jpg
7,img_02558.jpg
1,img_02254.jpg
5,img_03067.jpg
19,img_07789.jpg
32,img_00594.jpg
16,img_06707.jpg
2,img_05214.jpg
1,img_03590.jpg
26,img_04596.jpg
1,img_04230.jpg
19,img_04852.jpg
5,img_02859.jpg
5,img_01327.jpg
9,img_04743.jpg
1,img_00811.jpg
5,img_03325.jpg
1,img_06442.jpg
47,img_05183.jpg
5,img_07415.jpg
47,img_02807.jpg
1,img_05827.jpg
1,img_02530.jpg
26,img_02685.jpg
5,img_06453.jpg
5,img_06051.jpg
9,img_07250.jpg
42,img_07454.jpg
8,img_03343.jpg
1,img_03367.jpg
1,img_02825.jpg
5,img_04302.jpg
6,img_05159.jpg
17,img_07274.jpg
5,img_03267.jpg
5,img_00010.jpg
7,img_05231.jpg
15,img_02537.jpg
7,img_05252.jpg
1,img_00023.jpg
5,img_05466.jpg
5,img_05163.jpg
3,img_06750.jpg
0,img_07208.jpg
5,img_03721.jpg
5,img_03330.jpg
1,img_02493.jpg
3,img_00413.jpg
5,img_02513.jpg
1,img_04056.jpg
42,img_01433.jpg
56,img_01800.jpg
0,img_06575.jpg
8,img_04579.jpg
5,img_03211.jpg
5,img_01677.jpg
15,img_03182.jpg
58,img_04052.jpg
6,img_01756.jpg
1,img_04769.jpg
1,img_04148.jpg
14,img_03883.jpg
0,img_07836.jpg
19,img_06591.jpg
5,img_03293.jpg
1,img_04429.jpg
1,img_04854.jpg
38,img_05884.jpg
19,img_02662.jpg
5,img_06129.jpg
4,img_04361.jpg
1,img_06997.jpg
18,img_06660.jpg
0,img_01850.jpg
5,img_05690.jpg
3,img_03916.jpg
0,img_05521.jpg
7,img_02195.jpg
-1,img_00248.jpg
60,img_05400.jpg
8,img_03525.jpg
26,img_03582.jpg
5,img_05258.jpg
5,img_02584.jpg
21,img_01529.jpg
5,img_00186.jpg
0,img_07571.jpg
21,img_03263.jpg
1,img_05834.jpg
44,img_02730.jpg
5,img_00099.jpg
5,img_01052.jpg
48,img_01749.jpg
1,img_07221.jpg
35,img_03147.jpg
1,img_06326.jpg
15,img_00130.jpg
30,img_02163.jpg
1,img_02404.jpg
5,img_06767.jpg
61,img_07560.jpg
22,img_05645.jpg
1,img_05943.jpg
3,img_01892.jpg
5,img_03826.jpg
19,img_06758.jpg
1,img_04159.jpg
26,img_07129.jpg
5,img_03862.jpg
1,img_02715.jpg
1,img_06048.jpg
5,img_02084.jpg
5,img_04572.jpg
9,img_01718.jpg
5,img_07262.jpg
-1,img_00400.jpg
34,img_05396.jpg
16,img_02480.jpg
5,img_02572.jpg
1,img_01573.jpg
38,img_00742.jpg
14,img_04458.jpg
1,img_07379.jpg
1,img_05783.jpg
1,img_04736.jpg
6,img_03106.jpg
14,img_02301.jpg
23,img_06158.jpg
5,img_04347.jpg
16,img_00085.jpg
37,img_05966.jpg
0,img_00823.jpg
5,img_05225.jpg
27,img_02498.jpg
39,img_07341.jpg
5,img_07334.jpg
20,img_01446.jpg
23,img_04742.jpg
0,img_02378.jpg
-1,img_06313.jpg
1,img_02633.jpg
0,img_02343.jpg
-1,img_00193.jpg
19,img_04100.jpg
5,img_01032.jpg
23,img_07638.jpg
5,img_04942.jpg
29,img_00012.jpg
1,img_06467.jpg
1,img_00222.jpg
5,img_05540.jpg
1,img_04043.jpg
-1,img_04537.jpg
-1,img_03020.jpg
34,img_07155.jpg
-1,img_06142.jpg
1,img_03253.jpg
1,img_05878.jpg
-1,img_02694.jpg
5,img_01507.jpg
0,img_01340.jpg
42,img_04609.jpg
7,img_05532.jpg
12,img_04008.jpg
1,img_03727.jpg
-1,img_05082.jpg
42,img_02436.jpg
1,img_04245.jpg
5,img_06120.jpg
5,img_04231.jpg
-1,img_06476.jpg
5,img_02042.jpg
1,img_04516.jpg
3,img_05130.jpg
5,img_01397.jpg
38,img_04346.jpg
62,img_05193.jpg
33,img_03984.jpg
-1,img_01265.jpg
1,img_00815.jpg
5,img_04824.jpg
1,img_07484.jpg
21,img_07851.jpg
1,img_00956.jpg
1,img_00770.jpg
0,img_05728.jpg
10,img_03516.jpg
13,img_05656.jpg
1,img_07883.jpg
6,img_05075.jpg
5,img_03861.jpg
1,img_03917.jpg
5,img_01448.jpg
5,img_05617.jpg
5,img_03406.jpg
5,img_00176.jpg
9,img_00783.jpg
1,img_00121.jpg
1,img_01883.jpg
59,img_02555.jpg
1,img_02629.jpg
5,img_03793.jpg
5,img_01268.jpg
19,img_05523.jpg
0,img_07461.jpg
49,img_00329.jpg
37,img_01512.jpg
1,img_03090.jpg
5,img_03213.jpg
1,img_04780.jpg
1,img_01418.jpg
1,img_06380.jpg
28,img_06185.jpg
1,img_04312.jpg
19,img_03849.jpg
19,img_01865.jpg
37,img_07774.jpg
5,img_07871.jpg
5,img_05043.jpg
38,img_07742.jpg
3,img_07102.jpg
33,img_02515.jpg
20,img_07540.jpg
9,img_03689.jpg
5,img_01634.jpg
23,img_05902.jpg
39,img_06234.jpg
5,img_06367.jpg
0,img_03127.jpg
42,img_03307.jpg
5,img_02032.jpg
-1,img_02033.jpg
32,img_04783.jpg
1,img_00713.jpg
39,img_01235.jpg
19,img_05213.jpg
8,img_05823.jpg
5,img_04890.jpg
19,img_05562.jpg
31,img_05086.jpg
37,img_07142.jpg
37,img_07919.jpg
11,img_06220.jpg
-1,img_06090.jpg
7,img_00245.jpg
0,img_03004.jpg
5,img_06005.jpg
44,img_07747.jpg
21,img_04589.jpg
21,img_02524.jpg
44,img_01007.jpg
6,img_02408.jpg
1,img_00286.jpg
5,img_07877.jpg
1,img_04054.jpg
5,img_02394.jpg
1,img_05495.jpg
5,img_06405.jpg
8,img_07498.jpg
5,img_02933.jpg
5,img_07503.jpg
19,img_05993.jpg
-1,img_03806.jpg
1,img_04751.jpg
9,img_04028.jpg
5,img_01011.jpg
5,img_02776.jpg
0,img_00187.jpg
1,img_04350.jpg
0,img_03051.jpg
1,img_07517.jpg
-1,img_07758.jpg
5,img_04548.jpg
51,img_04636.jpg
5,img_01243.jpg
3,img_01504.jpg
1,img_03927.jpg
5,img_00271.jpg
1,img_07033.jpg
5,img_04565.jpg
-1,img_00829.jpg
6,img_05027.jpg
1,img_05576.jpg
58,img_06478.jpg
5,img_07802.jpg
0,img_03948.jpg
1,img_02198.jpg
1,img_04680.jpg
-1,img_07544.jpg
37,img_01766.jpg
5,img_00880.jpg
1,img_07858.jpg
21,img_02779.jpg
0,img_06542.jpg
0,img_04444.jpg
43,img_03544.jpg
5,img_00093.jpg
38,img_02585.jpg
5,img_05449.jpg
5,img_03477.jpg
-1,img_07536.jpg
1,img_02802.jpg
1,img_00420.jpg
0,img_00677.jpg
15,img_04075.jpg
5,img_01906.jpg
18,img_07166.jpg
0,img_00451.jpg
34,img_07595.jpg
1,img_05200.jpg
11,img_07661.jpg
37,img_01221.jpg
26,img_03000.jpg
64,img_07087.jpg
1,img_07080.jpg
5,img_05383.jpg
8,img_01710.jpg
5,img_03565.jpg
65,img_07383.jpg
43,img_01343.jpg
1,img_04243.jpg
5,img_04779.jpg
3,img_06596.jpg
26,img_05814.jpg
8,img_00247.jpg
1,img_05786.jpg
38,img_07031.jpg
6,img_02441.jpg
53,img_05240.jpg
6,img_07668.jpg
52,img_07808.jpg
5,img_00135.jpg
1,img_03304.jpg
5,img_07107.jpg
57,img_07119.jpg
1,img_00019.jpg
0,img_06729.jpg
5,img_01729.jpg
19,img_03401.jpg
5,img_07279.jpg
0,img_05318.jpg
65,img_04759.jpg
19,img_02605.jpg
1,img_05155.jpg
23,img_01590.jpg
0,img_02173.jpg
5,img_05280.jpg
26,img_02366.jpg
51,img_06878.jpg
6,img_05758.jpg
5,img_05846.jpg
1,img_05753.jpg
5,img_05465.jpg
19,img_04841.jpg
1,img_06903.jpg
1,img_00269.jpg
1,img_06579.jpg
0,img_02953.jpg
0,img_00641.jpg
5,img_02543.jpg
1,img_04820.jpg
1,img_04598.jpg
1,img_02931.jpg
6,img_00632.jpg
9,img_01174.jpg
49,img_05796.jpg
19,img_03693.jpg
5,img_05598.jpg
41,img_06145.jpg
5,img_02100.jpg
9,img_00769.jpg
7,img_05762.jpg
1,img_03327.jpg
5,img_00332.jpg
39,img_01848.jpg
5,img_03975.jpg
1,img_06080.jpg
1,img_07860.jpg
23,img_00339.jpg
0,img_07731.jpg
5,img_06584.jpg
10,img_04086.jpg
5,img_03578.jpg
1,img_07852.jpg
42,img_02471.jpg
1,img_05255.jpg
35,img_03314.jpg
0,img_06796.jpg
38,img_03344.jpg
5,img_06865.jpg
1,img_00872.jpg
9,img_03015.jpg
5,img_01492.jpg
5,img_05342.jpg
5,img_06636.jpg
5,img_04435.jpg
1,img_00385.jpg
1,img_07403.jpg
5,img_03003.jpg
5,img_01019.jpg
20,img_07617.jpg
23,img_06760.jpg
5,img_01949.jpg
6,img_02386.jpg
62,img_02197.jpg
5,img_04021.jpg
8,img_02017.jpg
-1,img_06421.jpg
39,img_00470.jpg
1,img_06854.jpg
1,img_05152.jpg
34,img_01683.jpg
1,img_06013.jpg
29,img_00057.jpg
-1,img_05194.jpg
38,img_05506.jpg
9,img_05420.jpg
29,img_00219.jpg
5,img_01314.jpg
5,img_04174.jpg
19,img_00266.jpg
6,img_07732.jpg
-1,img_02453.jpg
18,img_02121.jpg
1,img_03065.jpg
5,img_00029.jpg
8,img_05716.jpg
5,img_01276.jpg
0,img_01375.jpg
3,img_00084.jpg
24,img_07804.jpg
28,img_07814.jpg
26,img_01525.jpg
5,img_06287.jpg
3,img_06839.jpg
0,img_07721.jpg
1,img_05816.jpg
5,img_03959.jpg
-1,img_02030.jpg
26,img_02786.jpg
1,img_02133.jpg
5,img_00725.jpg
1,img_04688.jpg
38,img_05803.jpg
21,img_01001.jpg
1,img_05663.jpg
-1,img_07545.jpg
-1,img_04364.jpg
5,img_06587.jpg
5,img_05934.jpg
1,img_04618.jpg
42,img_07035.jpg
5,img_07349.jpg
5,img_06126.jpg
5,img_01459.jpg
1,img_02276.jpg
5,img_04202.jpg
15,img_01603.jpg
1,img_01820.jpg
9,img_01450.jpg
0,img_04568.jpg
19,img_04446.jpg
26,img_01579.jpg
14,img_02102.jpg
5,img_04123.jpg
1,img_07118.jpg
9,img_05837.jpg
56,img_00281.jpg
13,img_03035.jpg
8,img_03962.jpg
5,img_07037.jpg
1,img_01334.jpg
1,img_00916.jpg
1,img_04628.jpg
5,img_01790.jpg
34,img_04412.jpg
11,img_02987.jpg
0,img_04082.jpg
1,img_02533.jpg
17,img_03813.jpg
0,img_00891.jpg
5,img_02765.jpg
5,img_00370.jpg
5,img_05109.jpg
9,img_06154.jpg
38,img_03607.jpg
5,img_06866.jpg
9,img_05787.jpg
-1,img_07839.jpg
9,img_07116.jpg
37,img_06224.jpg
5,img_03765.jpg
7,img_02095.jpg
1,img_03108.jpg
54,img_07610.jpg
1,img_07163.jpg
9,img_05695.jpg
0,img_02341.jpg
34,img_03099.jpg
56,img_06471.jpg
10,img_05390.jpg
26,img_06172.jpg
1,img_06118.jpg
5,img_03999.jpg
40,img_07395.jpg
11,img_01298.jpg
5,img_03157.jpg
37,img_07010.jpg
20,img_06680.jpg
-1,img_03820.jpg
52,img_02325.jpg
5,img_05036.jpg
1,img_07807.jpg
1,img_05477.jpg
5,img_03300.jpg
1,img_07162.jpg
1,img_00305.jpg
1,img_04472.jpg
1,img_07655.jpg
1,img_03431.jpg
38,img_05637.jpg
5,img_01162.jpg
5,img_01804.jpg
15,img_02425.jpg
5,img_07751.jpg
25,img_00644.jpg
5,img_04481.jpg
37,img_04279.jpg
9,img_01301.jpg
5,img_05053.jpg
-1,img_01934.jpg
13,img_00827.jpg
50,img_07309.jpg
11,img_00365.jpg
1,img_01304.jpg
14,img_01303.jpg
-1,img_05970.jpg
4,img_07766.jpg
5,img_02170.jpg
-1,img_00529.jpg
1,img_01675.jpg
41,img_00796.jpg
1,img_07276.jpg
35,img_04798.jpg
1,img_00372.jpg
5,img_01417.jpg
42,img_06991.jpg
5,img_02930.jpg
43,img_07878.jpg
3,img_03187.jpg
53,img_02818.jpg
5,img_02292.jpg
45,img_07444.jpg
39,img_02311.jpg
3,img_04906.jpg
5,img_06951.jpg
1,img_02790.jpg
5,img_03604.jpg
36,img_05060.jpg
5,img_03538.jpg
19,img_05868.jpg
19,img_04307.jpg
28,img_02586.jpg
5,img_05450.jpg
5,img_02942.jpg
5,img_07008.jpg
2,img_02777.jpg
19,img_07153.jpg
0,img_06338.jpg
5,img_05114.jpg
28,img_00356.jpg
5,img_00605.jpg
5,img_04057.jpg
0,img_04542.jpg
1,img_01871.jpg
19,img_03005.jpg
5,img_01457.jpg
5,img_03021.jpg
5,img_05474.jpg
29,img_03965.jpg
19,img_05610.jpg
5,img_06153.jpg
5,img_06029.jpg
51,img_03265.jpg
5,img_00660.jpg
1,img_00270.jpg
1,img_07226.jpg
5,img_02994.jpg
1,img_03654.jpg
9,img_01707.jpg
5,img_01013.jpg
9,img_03843.jpg
25,img_01474.jpg
1,img_03963.jpg
62,img_06497.jpg
5,img_00657.jpg
21,img_07772.jpg
13,img_02278.jpg
5,img_04016.jpg
23,img_05681.jpg
5,img_02272.jpg
-1,img_06053.jpg
5,img_07296.jpg
5,img_07462.jpg
1,img_01830.jpg
7,img_02094.jpg
1,img_02718.jpg
1,img_07286.jpg
5,img_06254.jpg
5,img_01005.jpg
5,img_07384.jpg
20,img_04954.jpg
13,img_02918.jpg
7,img_04289.jpg
1,img_03737.jpg
5,img_07432.jpg
5,img_05556.jpg
5,img_01186.jpg
5,img_07126.jpg
1,img_03131.jpg
61,img_04965.jpg
0,img_00983.jpg
9,img_03464.jpg
1,img_07541.jpg
9,img_02427.jpg
9,img_00951.jpg
1,img_00105.jpg
5,img_04616.jpg
9,img_06334.jpg
5,img_04022.jpg
9,img_01808.jpg
5,img_05557.jpg
5,img_00544.jpg
1,img_01648.jpg
1,img_02562.jpg
1,img_07437.jpg
37,img_03611.jpg
5,img_06853.jpg
9,img_07388.jpg
1,img_01072.jpg
27,img_01912.jpg
18,img_06754.jpg
26,img_00494.jpg
5,img_02182.jpg
23,img_03593.jpg
40,img_03002.jpg
1,img_02271.jpg
-1,img_07100.jpg
1,img_02210.jpg
13,img_06304.jpg
1,img_06060.jpg
5,img_01957.jpg
1,img_06035.jpg
5,img_00114.jpg
44,img_07537.jpg
5,img_01219.jpg
0,img_03918.jpg
8,img_03521.jpg
-1,img_05515.jpg
5,img_01701.jpg
64,img_02608.jpg
-1,img_02893.jpg
1,img_04396.jpg
1,img_06486.jpg
1,img_06569.jpg
5,img_04646.jpg
8,img_06385.jpg
5,img_01155.jpg
1,img_04102.jpg
3,img_01588.jpg
5,img_00354.jpg
1,img_06595.jpg
1,img_04420.jpg
0,img_00037.jpg
0,img_02295.jpg
16,img_05725.jpg
5,img_04708.jpg
5,img_03736.jpg
9,img_03196.jpg
1,img_05366.jpg
8,img_04538.jpg
10,img_05883.jpg
24,img_00363.jpg
32,img_04229.jpg
4,img_03487.jpg
20,img_01207.jpg
13,img_00900.jpg
21,img_02012.jpg
1,img_06826.jpg
5,img_00377.jpg
19,img_02326.jpg
14,img_04486.jpg
1,img_01349.jpg
19,img_00568.jpg
5,img_05009.jpg
1,img_02046.jpg
-1,img_04513.jpg
1,img_02179.jpg
9,img_03121.jpg
31,img_01574.jpg
60,img_04097.jpg
31,img_00901.jpg
32,img_00690.jpg
5,img_03673.jpg
33,img_03675.jpg
20,img_01206.jpg
5,img_07197.jpg
5,img_06766.jpg
-1,img_00849.jpg
19,img_07252.jpg
39,img_04918.jpg
1,img_06155.jpg
5,img_02635.jpg
5,img_05313.jpg
19,img_02886.jpg
5,img_03113.jpg
5,img_03921.jpg
0,img_03509.jpg
5,img_01125.jpg
48,img_04236.jpg
26,img_00243.jpg
0,img_03782.jpg
5,img_02111.jpg
42,img_01009.jpg
1,img_07315.jpg
19,img_05694.jpg
5,img_07740.jpg
4,img_06647.jpg
19,img_02940.jpg
-1,img_04916.jpg
26,img_07673.jpg
0,img_01727.jpg
5,img_07558.jpg
1,img_03997.jpg
9,img_05407.jpg
1,img_05782.jpg
5,img_04714.jpg
-1,img_00681.jpg
1,img_04434.jpg
51,img_06070.jpg
5,img_03834.jpg
-1,img_04917.jpg
1,img_00727.jpg
5,img_07741.jpg
1,img_05321.jpg
5,img_04326.jpg
14,img_07918.jpg
1,img_05923.jpg
0,img_02936.jpg
3,img_06515.jpg
39,img_07761.jpg
9,img_04185.jpg
9,img_05170.jpg
0,img_01606.jpg
5,img_03009.jpg
63,img_07912.jpg
5,img_07240.jpg
5,img_03154.jpg
8,img_06130.jpg
1,img_03647.jpg
5,img_03107.jpg
0,img_01861.jpg
37,img_04414.jpg
1,img_04121.jpg
26,img_06816.jpg
5,img_03092.jpg
23,img_07285.jpg
46,img_05842.jpg
0,img_00696.jpg
9,img_03185.jpg
5,img_01434.jpg
5,img_04379.jpg
1,img_00477.jpg
1,img_02288.jpg
5,img_00239.jpg
5,img_05375.jpg
1,img_01604.jpg
9,img_02968.jpg
5,img_06774.jpg
35,img_01829.jpg
-1,img_02316.jpg
18,img_05511.jpg
0,img_02736.jpg
5,img_01183.jpg
22,img_04996.jpg
1,img_02658.jpg
0,img_05090.jpg
3,img_05880.jpg
34,img_00741.jpg
-1,img_05607.jpg
53,img_00107.jpg
5,img_04992.jpg
1,img_04535.jpg
5,img_03029.jpg
42,img_03570.jpg
5,img_00264.jpg
5,img_03217.jpg
1,img_01993.jpg
5,img_01423.jpg
4,img_06648.jpg
5,img_03313.jpg
20,img_07078.jpg
5,img_00596.jpg
9,img_07633.jpg
5,img_01319.jpg
0,img_00217.jpg
1,img_05559.jpg
25,img_01628.jpg
1,img_02089.jpg
9,img_02845.jpg
5,img_00045.jpg
45,img_01196.jpg
5,img_02168.jpg
5,img_03846.jpg
34,img_03730.jpg
1,img_07242.jpg
16,img_02470.jpg
5,img_06123.jpg
63,img_00457.jpg
-1,img_06792.jpg
1,img_05706.jpg
1,img_02351.jpg
5,img_00158.jpg
1,img_01353.jpg
9,img_05174.jpg
1,img_05677.jpg
5,img_00437.jpg
-1,img_04365.jpg
0,img_03062.jpg
-1,img_03947.jpg
5,img_05032.jpg
5,img_06089.jpg
19,img_06200.jpg
5,img_06785.jpg
5,img_04336.jpg
19,img_06309.jpg
1,img_02087.jpg
5,img_05325.jpg
5,img_07513.jpg
1,img_07239.jpg
5,img_00387.jpg
10,img_01014.jpg
5,img_04717.jpg
24,img_04304.jpg
5,img_02138.jpg
0,img_07109.jpg
1,img_04972.jpg
5,img_04737.jpg
-1,img_01419.jpg
1,img_07530.jpg
1,img_04713.jpg
42,img_01786.jpg
0,img_00259.jpg
5,img_00617.jpg
28,img_07057.jpg
3,img_05398.jpg
3,img_03887.jpg
5,img_07265.jpg
9,img_04632.jpg
23,img_03335.jpg
1,img_03612.jpg
26,img_00585.jpg
1,img_04355.jpg
1,img_01809.jpg
5,img_07645.jpg
5,img_01514.jpg
19,img_07567.jpg
0,img_06841.jpg
-1,img_00208.jpg
35,img_00137.jpg
5,img_00626.jpg
1,img_01403.jpg
65,img_05380.jpg
5,img_03331.jpg
23,img_04349.jpg
5,img_07555.jpg
5,img_03040.jpg
1,img_06664.jpg
1,img_05112.jpg
5,img_00969.jpg
8,img_01645.jpg
5,img_01044.jpg
1,img_02448.jpg
42,img_02253.jpg
5,img_04504.jpg
-1,img_05801.jpg
30,img_02405.jpg
5,img_03397.jpg
38,img_00341.jpg
1,img_06867.jpg
1,img_06406.jpg
15,img_04547.jpg
1,img_03706.jpg
26,img_03059.jpg
9,img_00531.jpg
8,img_00427.jpg
0,img_03259.jpg
20,img_07892.jpg
0,img_01520.jpg
5,img_05811.jpg
9,img_04676.jpg
0,img_03505.jpg
1,img_02221.jpg
5,img_06863.jpg
1,img_00638.jpg
1,img_05667.jpg
0,img_06554.jpg
7,img_04837.jpg
5,img_07000.jpg
5,img_00122.jpg
1,img_06000.jpg
1,img_01759.jpg
42,img_05684.jpg
46,img_02868.jpg
19,img_03381.jpg
5,img_03808.jpg
19,img_03991.jpg
5,img_06479.jpg
5,img_07794.jpg
42,img_02190.jpg
1,img_06852.jpg
0,img_02626.jpg
-1,img_03016.jpg
1,img_01814.jpg
-1,img_05215.jpg
5,img_07399.jpg
1,img_02643.jpg
5,img_05774.jpg
9,img_01615.jpg
5,img_00490.jpg
9,img_04908.jpg
9,img_03276.jpg
0,img_07640.jpg
1,img_07204.jpg
5,img_00274.jpg
5,img_03535.jpg
1,img_04526.jpg
1,img_02274.jpg
45,img_04460.jpg
0,img_07340.jpg
26,img_00318.jpg
5,img_02760.jpg
5,img_03336.jpg
5,img_07743.jpg
22,img_02395.jpg
47,img_03277.jpg
1,img_06722.jpg
49,img_00771.jpg
5,img_04431.jpg
52,img_05859.jpg
64,img_06713.jpg
5,img_05535.jpg
5,img_06435.jpg
66,img_00762.jpg
5,img_03404.jpg
1,img_02008.jpg
10,img_00319.jpg
1,img_04354.jpg
5,img_01879.jpg
1,img_01330.jpg
5,img_02514.jpg
1,img_06105.jpg
3,img_02731.jpg
1,img_02438.jpg
5,img_03842.jpg
-1,img_04821.jpg
5,img_03634.jpg
5,img_07255.jpg
1,img_01182.jpg
1,img_03281.jpg
12,img_06184.jpg
1,img_00131.jpg
1,img_02381.jpg
42,img_03141.jpg
24,img_05402.jpg
0,img_02440.jpg
-1,img_06995.jpg
9,img_07061.jpg
9,img_07302.jpg
1,img_06980.jpg
49,img_04989.jpg
42,img_06589.jpg
11,img_02114.jpg
1,img_07210.jpg
42,img_02034.jpg
0,img_02981.jpg
-1,img_05122.jpg
5,img_07418.jpg
1,img_06623.jpg
5,img_07098.jpg
21,img_02328.jpg
5,img_02698.jpg
5,img_04267.jpg
19,img_02013.jpg
1,img_07765.jpg
-1,img_06025.jpg
5,img_03448.jpg
41,img_02592.jpg
1,img_07307.jpg
1,img_04666.jpg
55,img_01784.jpg
5,img_06179.jpg
1,img_00560.jpg
9,img_07338.jpg
5,img_01040.jpg
41,img_02958.jpg
5,img_06031.jpg
9,img_04255.jpg
5,img_00616.jpg
5,img_03979.jpg
3,img_04971.jpg
5,img_05067.jpg
5,img_05343.jpg
5,img_01952.jpg
5,img_01713.jpg
5,img_07133.jpg
3,img_07598.jpg
11,img_03057.jpg
1,img_02035.jpg
-1,img_00313.jpg
0,img_01271.jpg
5,img_02090.jpg
-1,img_04826.jpg
8,img_01305.jpg
32,img_06884.jpg
0,img_06418.jpg
0,img_04187.jpg
8,img_03589.jpg
1,img_04371.jpg
3,img_07584.jpg
9,img_02516.jpg
6,img_01110.jpg
1,img_03076.jpg
1,img_07368.jpg
7,img_00583.jpg
19,img_01047.jpg
1,img_06735.jpg
19,img_05039.jpg
-1,img_03352.jpg
6,img_06562.jpg
28,img_06064.jpg
5,img_02415.jpg
1,img_05482.jpg
8,img_02169.jpg
0,img_03086.jpg
66,img_02452.jpg
-1,img_00512.jpg
20,img_03171.jpg
1,img_02610.jpg
5,img_07720.jpg
19,img_00301.jpg
24,img_04938.jpg
1,img_01485.jpg
1,img_03983.jpg
5,img_07486.jpg
1,img_06244.jpg
5,img_01483.jpg
38,img_05373.jpg
5,img_04466.jpg
53,img_05841.jpg
1,img_03168.jpg
5,img_04738.jpg
1,img_06135.jpg
42,img_00728.jpg
5,img_02120.jpg
5,img_02945.jpg
9,img_02055.jpg
9,img_04394.jpg
1,img_05707.jpg
-1,img_00684.jpg
1,img_03241.jpg
19,img_05808.jpg
1,img_05757.jpg
5,img_06960.jpg
1,img_01264.jpg
5,img_07167.jpg
5,img_05296.jpg
26,img_03423.jpg
1,img_07556.jpg
5,img_01416.jpg
5,img_03772.jpg
9,img_04363.jpg
1,img_01953.jpg
1,img_01516.jpg
31,img_00466.jpg
5,img_06293.jpg
6,img_00206.jpg
3,img_05866.jpg
1,img_00307.jpg
5,img_01000.jpg
1,img_03427.jpg
5,img_07398.jpg
3,img_00926.jpg
40,img_00819.jpg
34,img_07150.jpg
1,img_03480.jpg
1,img_02491.jpg
3,img_01118.jpg
42,img_05148.jpg
5,img_01292.jpg
5,img_05756.jpg
5,img_06932.jpg
-1,img_03315.jpg
19,img_07041.jpg
-1,img_03173.jpg
0,img_00918.jpg
5,img_04635.jpg
1,img_06297.jpg
5,img_04948.jpg
47,img_07449.jpg
1,img_07857.jpg
1,img_01161.jpg
5,img_03530.jpg
5,img_00866.jpg
11,img_07473.jpg
9,img_06805.jpg
9,img_00506.jpg
1,img_06834.jpg
14,img_03555.jpg
5,img_00501.jpg
-1,img_04259.jpg
27,img_07825.jpg
-1,img_01489.jpg
15,img_01163.jpg
5,img_00491.jpg
52,img_07881.jpg
1,img_01866.jpg
1,img_02053.jpg
9,img_05307.jpg
8,img_01881.jpg
19,img_05283.jpg
5,img_01805.jpg
0,img_02696.jpg
5,img_05895.jpg
1,img_00545.jpg
0,img_01623.jpg
10,img_06043.jpg
5,img_00715.jpg
5,img_00574.jpg
5,img_01767.jpg
1,img_07445.jpg
6,img_07443.jpg
5,img_03011.jpg
1,img_03133.jpg
5,img_01038.jpg
0,img_02717.jpg
-1,img_03221.jpg
19,img_04574.jpg
11,img_07056.jpg
9,img_03596.jpg
1,img_02978.jpg
5,img_01757.jpg
12,img_05709.jpg
5,img_04796.jpg
19,img_07271.jpg
3,img_06908.jpg
1,img_07904.jpg
5,img_00509.jpg
21,img_07113.jpg
1,img_06134.jpg
26,img_03158.jpg
1,img_00134.jpg
65,img_01308.jpg
42,img_00294.jpg
5,img_06882.jpg
15,img_02816.jpg
0,img_07608.jpg
5,img_07830.jpg
5,img_04241.jpg
9,img_00004.jpg
48,img_05676.jpg
5,img_06619.jpg
1,img_04952.jpg
9,img_02809.jpg
1,img_02388.jpg
5,img_03819.jpg
5,img_04151.jpg
1,img_06028.jpg
5,img_07492.jpg
5,img_06740.jpg
5,img_02501.jpg
9,img_01360.jpg
3,img_06628.jpg
13,img_03396.jpg
29,img_02724.jpg
41,img_02450.jpg
1,img_05926.jpg
5,img_00089.jpg
48,img_06502.jpg
1,img_01612.jpg
0,img_05561.jpg
1,img_01526.jpg
23,img_00826.jpg
1,img_06714.jpg
18,img_02418.jpg
1,img_04360.jpg
1,img_04072.jpg
0,img_00743.jpg
1,img_01477.jpg
1,img_07019.jpg
5,img_07711.jpg
1,img_04303.jpg
5,img_04477.jpg
1,img_02407.jpg
5,img_02938.jpg
1,img_07392.jpg
5,img_00636.jpg
5,img_02439.jpg
16,img_01083.jpg
1,img_07770.jpg
39,img_07390.jpg
1,img_05312.jpg
9,img_02275.jpg
5,img_03836.jpg
5,img_02489.jpg
5,img_03311.jpg
0,img_04771.jpg
5,img_00523.jpg
1,img_02721.jpg
5,img_01954.jpg
1,img_07358.jpg
21,img_02329.jpg
5,img_01841.jpg
59,img_04979.jpg
1,img_04342.jpg
0,img_01846.jpg
1,img_00092.jpg
3,img_00572.jpg
9,img_01769.jpg
19,img_06460.jpg
39,img_03541.jpg
32,img_01975.jpg
38,img_06963.jpg
39,img_00647.jpg
34,img_00592.jpg
19,img_00015.jpg
5,img_05094.jpg
-1,img_04351.jpg
1,img_07042.jpg
5,img_03774.jpg
44,img_02756.jpg
1,img_04238.jpg
46,img_02196.jpg
34,img_00300.jpg
5,img_00643.jpg
38,img_00425.jpg
1,img_01772.jpg
42,img_00895.jpg
10,img_01306.jpg
5,img_02828.jpg
5,img_03528.jpg
66,img_06670.jpg
1,img_04570.jpg
9,img_05592.jpg
1,img_05635.jpg
1,img_02549.jpg
0,img_07559.jpg
5,img_05029.jpg
1,img_02624.jpg
1,img_01354.jpg
1,img_00870.jpg
-1,img_04340.jpg
47,img_00673.jpg
0,img_03184.jpg
6,img_05727.jpg
38,img_01941.jpg
1,img_07074.jpg
38,img_01788.jpg
5,img_04178.jpg
1,img_07114.jpg
1,img_03753.jpg
5,img_03188.jpg
5,img_04253.jpg
5,img_05069.jpg
5,img_07739.jpg
1,img_00456.jpg
1,img_00043.jpg
3,img_05360.jpg
62,img_02382.jpg
1,img_03407.jpg
5,img_02359.jpg
20,img_00396.jpg
5,img_05275.jpg
19,img_01247.jpg
5,img_07643.jpg
5,img_05386.jpg
0,img_06594.jpg
5,img_00981.jpg
6,img_07394.jpg
5,img_07217.jpg
9,img_03817.jpg
0,img_05674.jpg
5,img_05158.jpg
19,img_06112.jpg
5,img_03656.jpg
1,img_01942.jpg
1,img_06913.jpg
5,img_06263.jpg
5,img_02915.jpg
1,img_04161.jpg
0,img_04528.jpg
5,img_04120.jpg
1,img_05206.jpg
52,img_03583.jpg
3,img_06874.jpg
5,img_02511.jpg
7,img_00391.jpg
5,img_03893.jpg
5,img_04698.jpg
-1,img_03025.jpg
34,img_04886.jpg
47,img_01120.jpg
12,img_00461.jpg
-1,img_01006.jpg
27,img_02097.jpg
1,img_02457.jpg
5,img_04770.jpg
26,img_00022.jpg
26,img_06007.jpg
5,img_05675.jpg
5,img_03159.jpg
37,img_00091.jpg
0,img_02247.jpg
5,img_00032.jpg
20,img_01422.jpg
5,img_07212.jpg
39,img_07233.jpg
63,img_06443.jpg
1,img_00261.jpg
1,img_04235.jpg
11,img_06847.jpg
8,img_07414.jpg
21,img_00201.jpg
26,img_01135.jpg
1,img_01656.jpg
9,img_06773.jpg
39,img_02550.jpg
-1,img_03514.jpg
5,img_07172.jpg
9,img_06550.jpg
61,img_03877.jpg
19,img_07075.jpg
1,img_04457.jpg
1,img_06821.jpg
5,img_04966.jpg
19,img_02340.jpg
32,img_06873.jpg
5,img_04808.jpg
9,img_00945.jpg
0,img_03347.jpg
5,img_06078.jpg
42,img_04206.jpg
1,img_03161.jpg
9,img_07130.jpg
28,img_01278.jpg
14,img_00303.jpg
1,img_03470.jpg
1,img_05128.jpg
5,img_01796.jpg
5,img_03640.jpg
34,img_01890.jpg
5,img_05800.jpg
42,img_05235.jpg
1,img_01415.jpg
5,img_05924.jpg
5,img_01506.jpg
5,img_05928.jpg
52,img_03908.jpg
1,img_01033.jpg
21,img_03990.jpg
5,img_06716.jpg
9,img_00441.jpg
10,img_00236.jpg
52,img_06803.jpg
40,img_05781.jpg
2,img_06175.jpg
5,img_07132.jpg
42,img_04786.jpg
5,img_07442.jpg
5,img_02463.jpg
5,img_06527.jpg
1,img_07073.jpg
42,img_01367.jpg
34,img_01959.jpg
5,img_01095.jpg
51,img_00453.jpg
0,img_06322.jpg
5,img_07483.jpg
5,img_02969.jpg
1,img_07365.jpg
38,img_04973.jpg
1,img_02695.jpg
5,img_06111.jpg
53,img_06384.jpg
0,img_02772.jpg
19,img_02414.jpg
1,img_05903.jpg
15,img_02591.jpg
5,img_07861.jpg
3,img_03972.jpg
26,img_00178.jpg
5,img_07636.jpg
35,img_02205.jpg
37,img_04678.jpg
0,img_02553.jpg
5,img_04734.jpg
0,img_05500.jpg
54,img_00968.jpg
5,img_06568.jpg
19,img_05020.jpg
5,img_01225.jpg
26,img_00910.jpg
63,img_07694.jpg
61,img_00793.jpg
5,img_03451.jpg
5,img_05472.jpg
34,img_02151.jpg
20,img_07477.jpg
5,img_04659.jpg
5,img_07316.jpg
1,img_04046.jpg
14,img_06871.jpg
5,img_04793.jpg
1,img_05704.jpg
5,img_04501.jpg
5,img_07812.jpg
-1,img_04621.jpg
1,img_04065.jpg
20,img_07488.jpg
3,img_03091.jpg
1,img_00788.jpg
-1,img_06693.jpg
9,img_01658.jpg
1,img_04110.jpg
1,img_03170.jpg
5,img_03132.jpg
-1,img_07452.jpg
6,img_00317.jpg
-1,img_02853.jpg
5,img_05893.jpg
5,img_07763.jpg
5,img_06452.jpg
-1,img_05049.jpg
7,img_01524.jpg
3,img_03494.jpg
5,img_06983.jpg
17,img_07795.jpg
1,img_05797.jpg
19,img_06347.jpg
1,img_02831.jpg
-1,img_00094.jpg
16,img_07576.jpg
5,img_02075.jpg
2,img_02578.jpg
9,img_00694.jpg
5,img_06877.jpg
1,img_05997.jpg
7,img_01003.jpg
7,img_01061.jpg
5,img_06546.jpg
5,img_03606.jpg
0,img_01380.jpg
1,img_07853.jpg
-1,img_04558.jpg
5,img_05245.jpg
0,img_06495.jpg
5,img_00885.jpg
1,img_00344.jpg
1,img_03599.jpg
19,img_01652.jpg
5,img_01558.jpg
5,img_04836.jpg
5,img_03298.jpg
-1,img_06499.jpg
26,img_04840.jpg
1,img_00925.jpg
5,img_04899.jpg
5,img_00579.jpg
5,img_07806.jpg
-1,img_03789.jpg
5,img_05973.jpg
5,img_05862.jpg
1,img_07546.jpg
21,img_04615.jpg
5,img_05367.jpg
5,img_04112.jpg
42,img_06601.jpg
1,img_02744.jpg
-1,img_04578.jpg
5,img_06553.jpg
5,img_01002.jpg
50,img_04041.jpg
14,img_02822.jpg
38,img_03153.jpg
5,img_05845.jpg
23,img_01056.jpg
51,img_05689.jpg
1,img_07095.jpg
5,img_06212.jpg
5,img_01902.jpg
5,img_01463.jpg
0,img_07624.jpg
38,img_05135.jpg
5,img_05575.jpg
5,img_00631.jpg
5,img_06063.jpg
5,img_02273.jpg
19,img_01741.jpg
5,img_05303.jpg
